{
  "_response_info": {
    "status": "ok",
    "links": [
      {
        "rel": "previous",
        "href": "http://need-api.dev.gov.uk/needs?page=2"
      },
      {
        "rel": "self",
        "href": "http://need-api.dev.gov.uk/needs?page=3"
      }
    ]
  },
  "total": 9,
  "current_page": 3,
  "pages": 3,
  "start_index": 7,
  "page_size": 3,
  "results": [
    {
      "id": 100015,
      "role": "Legal professional or Court official",
      "goal": "find information about the Ogden Tables and look-up information in those tables",
      "benefit": "I can assess the lump sum appropriate as compensation for a continuing future pecuniary loss or consequential expense in personal injury ",
      "organisation_ids": [
        "government-actuary-s-department"
      ],
      "organisations": [
        {
          "id": "government-actuary-s-department",
          "name": "Government Actuary's Department"
        }
      ]
    },
    {
      "id": 100014,
      "role": "Private Sector Company, Public Sector employer or an employee involved in a transfer from public to private sector",
      "goal": "know about Fair Deal policy, Broad Comparability, Bulk Transfers, Communicating to Staff, Bid Support etc ",
      "benefit": "Pension Rights of staff can be considered in the transfer of functions from the public to private sector and dealt with in accordance with the law.",
      "organisation_ids": [
        "government-actuary-s-department"
      ],
      "organisations": [
        {
          "id": "government-actuary-s-department",
          "name": "Government Actuary's Department"
        }
      ]
    },
    {
      "id": 100013,
      "role": "potential customer of GAD",
      "goal": "know what services they provide",
      "benefit": "I can make a decision about whether or not to hire/procure those services",
      "organisation_ids": [
        "government-actuary-s-department"
      ],
      "organisations": [
        {
          "id": "government-actuary-s-department",
          "name": "Government Actuary's Department"
        }
      ]
    }
  ]
}
