{
  "_response_info": {
    "status": "ok",
    "links": [
      {
        "rel": "next",
        "href": "http://need-api.dev.gov.uk/needs?page=2"
      },
      {
        "rel": "self",
        "href": "http://need-api.dev.gov.uk/needs?page=1"
      }
    ]
  },
  "total": 9,
  "current_page": 1,
  "pages": 3,
  "start_index": 1,
  "page_size": 3,
  "results": [
    {
      "id": 100072,
      "role": "vehicle owner",
      "goal": "tax my vehicle",
      "benefit": "I can legally keep it on the road",
      "organisation_ids": [
        "department-for-transport",
        "driver-and-vehicle-licensing-agency"
      ],
      "organisations": [
        {
          "id": "department-for-transport",
          "name": "Department for Transport"
        },
        {
          "id": "driver-and-vehicle-licensing-agency",
          "name": "Driver and Vehicle Licensing Agency"
        }
      ],
      "status": {
        "description": "proposed"
      }
    },
    {
      "id": 100071,
      "role": "member of the public",
      "goal": "complain about an advert for a medical product",
      "benefit": "it is brought to the attention of the MHRA/advertising authorities",
      "organisation_ids": [
        "medicines-and-healthcare-products-regulatory-agency"
      ],
      "organisations": [
        {
          "id": "medicines-and-healthcare-products-regulatory-agency",
          "name": "Medicines and Healthcare Products Regulatory Agency"
        }
      ],
      "status": {
        "description": "proposed"
      }
    },
    {
      "id": 100070,
      "role": "pharmaceutical industry manufacturer",
      "goal": "advertise my product",
      "benefit": "I can sell my product to my target market",
      "organisation_ids": [
        "medicines-and-healthcare-products-regulatory-agency"
      ],
      "organisations": [
        {
          "id": "medicines-and-healthcare-products-regulatory-agency",
          "name": "Medicines and Healthcare Products Regulatory Agency"
        }
      ],
      "status": {
        "description": "proposed"
      }
    }
  ]
}
