{
  "_response_info": {
    "status": "ok",
    "links": [
      {
        "rel": "previous",
        "href": "http://need-api.dev.gov.uk/needs?page=1"
      },
      {
        "rel": "next",
        "href": "http://need-api.dev.gov.uk/needs?page=3"
      },
      {
        "rel": "self",
        "href": "http://need-api.dev.gov.uk/needs?page=2"
      }
    ]
  },
  "total": 9,
  "current_page": 2,
  "pages": 3,
  "start_index": 4,
  "page_size": 3,
  "results": [
    {
      "id": 100009,
      "role": "potential TSol employee",
      "goal": "access employee deal data, terms and condition and the competency framework",
      "benefit": "I can decide if a vacancy at TSol is suitable and them formulate my application",
      "organisation_ids": [
        "treasury-solicitor-s-department"
      ],
      "organisations": [
        {
          "id": "treasury-solicitor-s-department",
          "name": "Treasury Solicitor’s Department"
        }
      ],
      "status": {
        "description": "proposed"
      }
    },
    {
      "id": 100008,
      "role": "lawyer",
      "goal": "understand panel counsel appointments, rates and work opportunities",
      "benefit": "I am able to formulate my application",
      "organisation_ids": [
        "treasury-solicitor-s-department"
      ],
      "organisations": [
        {
          "id": "treasury-solicitor-s-department",
          "name": "Treasury Solicitor’s Department"
        }
      ],
      "status": {
        "description": "proposed"
      }
    },
    {
      "id": 100007,
      "role": "interested party in dissolved company assets (including creditors)",
      "goal": "buy or claim an asset of a dissolved company",
      "benefit": "for example, extend my garden to the adjacent land owned by a dissolved company",
      "organisation_ids": [
        "treasury-solicitor-s-department"
      ],
      "organisations": [
        {
          "id": "treasury-solicitor-s-department",
          "name": "Treasury Solicitor’s Department"
        }
      ],
      "status": {
        "description": "proposed"
      }
    }
  ]
}
